{
  "images" : [
    {
      "filename" : "iconfinder_app_icons_photography___cam_camera_photo_image_gallery_lens_device_7627387.png",
      "idiom" : "universal",
      "scale" : "1x"
    },
    {
      "idiom" : "universal",
      "scale" : "2x"
    },
    {
      "idiom" : "universal",
      "scale" : "3x"
    }
  ],
  "info" : {
    "author" : "xcode",
    "version" : 1
  }
}
